project_path,project_id, owner
gitlab-org/build/CNG,4359271
gitlab-org/charts/auto-deploy-app,11915984
gitlab-org/charts/deploy-image-helm-base,7453181
gitlab-org/charts/gitlab,3828396
gitlab-org/charts/gitlab-runner,6329679
gitlab-org/charts/knative,16590122
gitlab-org/ci-cd/custom-executor-drivers/autoscaler,13822214
gitlab-org/ci-cd/custom-executor-drivers/fargate,16240616
gitlab-org/ci-cd/docker-machine,1254421
gitlab-org/ci-cd/gcp-exporter,5279538
gitlab-org/ci-cd/gitlab-runner-ubi-images,17019611
gitlab-org/ci-cd/runner-release-helper,11173751
gitlab-org/ci-cd/shared-runners/images/gcp/windows-containers,13815397
gitlab-org/ci-cd/shared-runners/images/macstadium/orka,19922160
gitlab-org/cli,34675721
gitlab-org/cloud-deploy,15363819
gitlab-org/cluster-integration/auto-build-image,10400718
gitlab-org/cluster-integration/auto-deploy-image,11688089
gitlab-org/cluster-integration/helm-install-image,9184510
gitlab-org/code-creation/repository-x-ray,51416367
gitlab-org/cookbook-omnibus-gitlab,95156
gitlab-org/customers-gitlab-com,2670515, @jeromezng
gitlab-org/database-team/gitlab-com-database-testing,23345837
gitlab-org/database-team/query-intercepter,43513722
gitlab-org/discourse-omniauth-gitlab,150440
gitlab-org/distribution/gitlab-configurator,13682597
gitlab-org/distribution/gitlab-provisioner,6047528
gitlab-org/docker-distribution-pruner,2651596
gitlab-org/Dockerfile,3101096
gitlab-org/gitaly,2009901, @andrashorvath
gitlab-org/gitaly-bench,4157550
gitlab-org/gitaly-proto,2694799
gitlab-org/gitlab,278964
gitlab-org/gitlab-build-images,1075790, @twk3
gitlab-org/gitlab_emoji,36743
gitlab-org/ruby/gems/gitlab_kramdown,5647182
gitlab-org/gitlab-compose-kit,4534254
gitlab-org/gitlab-development-kit,74823, @kwiebers
gitlab-org/gitlab-docs,1794617
gitlab-org/gitlab-elasticsearch-indexer,2953390, @changzhengliu
gitlab-org/gitlab-zoekt-indexer,46649240, @changzhengliu
gitlab-org/ruby/gems/gitlab-experiment,21250701
gitlab-org/gitlab-exporter,1507906, @pjphillips
gitlab-org/gitlab-foss,13083
gitlab-org/gitlab-gollum-lib,6043225
gitlab-org/gitlab-markup,1777822
gitlab-org/gitlab-mattermost,387896
gitlab-org/gitlab-metrics-exporter,34770409, @pjphillips
gitlab-org/gitlab-omnibus-builder,145205
gitlab-org/gitlab-pages,734943
gitlab-org/gitlab-pages-proto,5981322
gitlab-org/gitlab-recipes,13764
gitlab-org/gitlab-runner,250833
gitlab-org/gitlab-shell,14022, @sean_carroll
gitlab-org/gitlab-terminal,7792567
gitlab-org/gitlab-vscode-extension,5261717
gitlab-org/gitlab-workhorse,554859
gitlab-org/gitlabktl,11080193
gitlab-org/grafana-dashboards,928825
gitlab-org/iglu,14694517
gitlab-org/license-gitlab-com,6457868
gitlab-org/omniauth-gitlab,143237
gitlab-org/omniauth-ldap,27726
gitlab-org/omnibus-gitlab,20699
gitlab-org/gitlab-orchestrator,14378900
gitlab-org/project-templates/android,10953870
gitlab-org/project-templates/contributing,10506825
gitlab-org/project-templates/dotnetcore,10973541
gitlab-org/project-templates/express,3843116
gitlab-org/project-templates/go-micro,11015994
gitlab-org/project-templates/hugo,10586771
gitlab-org/project-templates/iosswift,11196060
gitlab-org/project-templates/jekyll,4875494
gitlab-org/project-templates/rails,3844141
gitlab-org/project-templates/react,11380952
gitlab-org/project-templates/salesforcedx,13331704
gitlab-org/project-templates/spring,3842996
gitlab-org/project-templates/serverless-framework,15112583
gitlab-org/prometheus-client-mmap,3362933
gitlab-org/prometheus-storage-migrator,4949400
gitlab-org/protect/general,26076251
gitlab-org/release-tools,430285
gitlab-org/security-products/analyzers/bundler-audit,9358979,@thiagocsf
gitlab-org/security-products/analyzers/eslint,10476326, @amarpatel
gitlab-org/security-products/analyzers/find-sec-bugs-groovy,7795571
gitlab-org/security-products/analyzers/find-sec-bugs-sbt,6487905
gitlab-org/security-products/analyzers/gemnasium,9450192, @thiagocsf
gitlab-org/security-products/analyzers/gemnasium-maven,9450197,@thiagocsf
gitlab-org/security-products/analyzers/gemnasium-python,9450195,@thiagocsf
gitlab-org/security-products/analyzers/gosec,7660893, @amarpatel
gitlab-org/security-products/analyzers/kics,30656896, @amarpatel
gitlab-org/security-products/analyzers/klar,13922331
gitlab-org/security-products/analyzers/nodejs-scan,7145793, @amarpatel
gitlab-org/security-products/analyzers/phpcs-security-audit,6392811, @amarpatel
gitlab-org/security-products/analyzers/pmd-apex,13017938, @amarpatel
gitlab-org/security-products/analyzers/retire.js,9396716,@thiagocsf
gitlab-org/security-products/analyzers/secrets,10861561
gitlab-org/security-products/analyzers/sobelow,11625232, @amarpatel
gitlab-org/security-products/analyzers/spotbugs,11139665, @amarpatel
gitlab-org/security-products/analyzers/tslint,10846951
gitlab-org/security-products/analyzers/mobsf,21479276, @amarpatel
gitlab-org/security-products/analyzers/gemnasium-gradle-plugin,15369510
gitlab-org/security-products/codequality,5498087
gitlab-org/ci-cd/codequality,17035255
gitlab-org/ci-cd/accessibility,17166102
gitlab-org/security-products/dast,9762266
gitlab-org/security-products/dast-runner-validation,26751150
gitlab-org/security-products/dast-cwe-checks,27060148
gitlab-org/security-products/analyzers/browserker,21351796
gitlab-org/security-products/dependency-scanning,5779760,@thiagocsf
gitlab-org/security-products/gemnasium-db,12006272
gitlab-org/security-products/gemnasium/api,5777179,@thiagocsf
gitlab-org/security-products/gemnasium/croncli,5777819,@thiagocsf
gitlab-org/security-products/gemnasium/gcp-config,5772881,@thiagocsf
gitlab-org/security-products/gemnasium/logcli,5777853,@thiagocsf
gitlab-org/security-products/gemnasium/maven-index-reader,5777939,@thiagocsf
gitlab-org/security-products/gemnasium/migrations,5777918,@thiagocsf
gitlab-org/security-products/gemnasium/nsqcli,5777952,@thiagocsf
gitlab-org/security-products/gemnasium/package-syncer,5777954,@thiagocsf
gitlab-org/security-products/gemnasium/pgcli,5777976,@thiagocsf
gitlab-org/security-products/gemnasium/registry-syncer,5778037,@thiagocsf
gitlab-org/security-products/gemnasium/registry-tracker,5778044,@thiagocsf
gitlab-org/security-products/gemnasium/resolver,5778056,@thiagocsf
gitlab-org/security-products/gemnasium/schema,5778074,@thiagocsf
gitlab-org/security-products/gemnasium/secrets,5778093,@thiagocsf
gitlab-org/security-products/gemnasium/semver,5778095,@thiagocsf
gitlab-org/security-products/gemnasium/web,5828233,@thiagocsf
gitlab-org/security-products/gitlab-cyclonedx-property-taxonomy,37734140
gitlab-org/security-products/license-management,6130122,@thiagocsf
gitlab-org/security-products/license-db/license-exporter,39298809,@thiagocsf
gitlab-org/security-products/license-db/license-feeder,40857363,@thiagocsf
gitlab-org/security-products/license-db/license-interfacer,39622674,@thiagocsf
gitlab-org/security-products/license-db/license-processor,39229232,@thiagocsf
gitlab-org/security-products/license-db/deployment,39233486,@thiagocsf
gitlab-org/security-products/license-db/schema,39193358,@thiagocsf
gitlab-org/security-products/sast,5373222
gitlab-org/serverless/runtimes/nodejs,11373038
gitlab-org/serverless/runtimes/ruby,11533294
gitlab-org/sidekiq-reliable-fetch,8362868
gitlab-org/security-products/advisory-db-curation-tools,13467157
gitlab-org/security-products/analyzers/bandit,6237088, @amarpatel
gitlab-org/security-products/analyzers/brakeman,6237091
gitlab-org/security-products/analyzers/common,6126012
gitlab-org/security-products/analyzers/find-sec-bugs,5606894
gitlab-org/security-products/analyzers/find-sec-bugs-gradle,6280478
gitlab-org/security-products/analyzers/flawfinder,6237085, @amarpatel
gitlab-org/security-products/analyzers/gemnasium-maven-plugin,13150952,@thiagocsf
gitlab-org/security-products/analyzers/go-ast-scanner,5971589
gitlab-org/security-products/analyzers/security-code-scan,6535935, @amarpatel
gitlab-org/security-products/analyzers/api-fuzzing,19617580
gitlab-org/security-products/analyzers/api-fuzzing-src,5964710, @twoodham
gitlab-org/security-products/demos/api-fuzzing/graphql-api-fuzzing-example,24298348
gitlab-org/security-products/demos/api-fuzzing/postman-api-fuzzing-example,22111360
gitlab-org/security-products/tests/api-fuzzing-e2e/openapi-v2-tls,25538517
gitlab-org/security-products/tests/api-fuzzing-e2e/postman-v2.1-tls,25537666
gitlab-org/security-products/tests/api-fuzzing-e2e/dast-benchmark-java-spring-mvn-api,25230764
gitlab-org/security-products/tests/api-fuzzing-e2e/har-formatted-body,24544330
gitlab-org/security-products/tests/api-fuzzing-e2e/dast-graphql-har,24544020
gitlab-org/security-products/tests/api-fuzzing-e2e/image-target-graphql,24542363
gitlab-org/security-products/tests/api-fuzzing-e2e/postman-v2.1-vars-dnd,24317064
gitlab-org/security-products/tests/api-fuzzing-e2e/postman-v2.1-vars,24313598
gitlab-org/security-products/tests/api-fuzzing-e2e/openapi-v3-dnd,24313398
gitlab-org/security-products/tests/api-fuzzing-e2e/openapi-v3,24302484
gitlab-org/security-products/tests/api-fuzzing-e2e/dast-har,23599168
gitlab-org/security-products/tests/api-fuzzing-e2e/postman-v2.1-dnd,23505725
gitlab-org/security-products/tests/api-fuzzing-e2e/har-dnd-build-target-image,23176971
gitlab-org/security-products/tests/api-fuzzing-e2e/openapi-v2-dnd,23176783
gitlab-org/security-products/tests/api-fuzzing-e2e/postman-v2.1,23070395
gitlab-org/security-products/tests/api-fuzzing-e2e/openapi-v2,23070377
gitlab-org/security-products/tests/api-fuzzing-e2e/image-target-flask,23070164
gitlab-org/security-products/tests/api-fuzzing-e2e/har-dnd,23070140
gitlab-org/security-products/tests/api-fuzzing-e2e/e2e-image,23069956
gitlab-org/security-products/tests/api-fuzzing-e2e/har-remote-target,23069693
gitlab-org/security-products/protocol-fuzzer-ce,24111720
gitlab-org/security-products/protocol-fuzzer-ee,24112430
gitlab-org/security-products/analyzers/gitlab-cov-fuzz,19413101, @twoodham
gitlab-org/security-products/analyzers/gitlab-cov-fuzz-src,19413012, @twoodham
gitlab-org/security-products/analyzers/fuzzers/javafuzz,19871573
gitlab-org/security-products/analyzers/fuzzers/pythonfuzz,19904939
gitlab-org/security-products/analyzers/fuzzers/jsfuzz,19871264, @twoodham
gitlab-org/security-products/demos/coverage-fuzzing/afl-fuzzing-example,24225194
gitlab-org/security-products/demos/coverage-fuzzing/pythonfuzz-fuzzing-example,23465101
gitlab-org/security-products/demos/coverage-fuzzing/jsfuzz-fuzzing-example,23365123
gitlab-org/security-products/demos/coverage-fuzzing/javafuzz-fuzzing-example,21501997
gitlab-org/security-products/demos/coverage-fuzzing/heartbleed-fuzzing-example,20773921
gitlab-org/security-products/demos/coverage-fuzzing/java-fuzzing-example,20337863
gitlab-org/security-products/demos/coverage-fuzzing/swift-fuzzing-example,20336302
gitlab-org/security-products/demos/coverage-fuzzing/rust-fuzzing-example,20334170
gitlab-org/security-products/demos/coverage-fuzzing/c-cpp-fuzzing-example,20162469
gitlab-org/security-products/demos/coverage-fuzzing/go-fuzzing-example,19413496
gitlab-org/security-products/analyzers/kubesec,14853550, @amarpatel
gitlab-org/security-products/analyzers/semgrep,24075172, @amarpatel
gitlab-org/security-products/analyzers/command,23597850, @amarpatel
gitlab-org/security-products/analyzers/report,23545481, @amarpatel
gitlab-org/security-products/analyzers/ruleset,23455079
gitlab-org/security-products/post-analyzers/tracking-calculator,24257614
gitlab-org/security-products/post-analyzers/scripts,28589369
gitlab-org/security-products/taggr,24249085
gitlab-org/security-products/cwe-info-go,15232184
gitlab-org/security-products/vet/vet,27819859
gitlab-org/security-products/vet/go-tree-sitter,27821148
gitlab-org/security-products/vet/tree-sitter70cast,27821122
gitlab-org/security-products/vet/stencils,28502955
gitlab-org/security-products/analyzers/container-scanning,24673064, @thiagocsf
gitlab-org/security-products/analyzers/cluster-image-scanning,27497069
gitlab-org/security-products/security-report-schemas,16683102, @thiagocsf
gitlab-org/security-products/security-report-schemas-ruby,37954006, @thiagocsf
gitlab-org/security-products/tests/apex-salesforce,13348998
gitlab-org/security-products/tests/c,5727416
gitlab-org/security-products/tests/common,6388398
gitlab-org/security-products/tests/container-scanning,11432834
gitlab-org/security-products/tests/cplusplus,5737157
gitlab-org/security-products/tests/dast-e2e,16239404
gitlab-org/security-products/tests/elixir-phoenix,11520423
gitlab-org/security-products/tests/go,5996549
gitlab-org/security-products/tests/go-modules,13664986
gitlab-org/security-products/tests/inkscape,9712018
gitlab-org/security-products/tests/java-gradle,8368700
gitlab-org/security-products/tests/java-groovy,8368695
gitlab-org/security-products/tests/java-maven,5457651
gitlab-org/security-products/tests/java-maven-multimodules,5509547
gitlab-org/security-products/tests/js,10748426
gitlab-org/security-products/tests/js-npm,5457755
gitlab-org/security-products/tests/js-yarn,5456231
gitlab-org/security-products/tests/multiple-reports-per-category,14097509
gitlab-org/security-products/tests/php-composer,5467143
gitlab-org/security-products/tests/python-pip,5467277
gitlab-org/security-products/tests/python-pipenv,11574953
gitlab-org/security-products/tests/ruby-bundler,5465687
gitlab-org/security-products/tests/ruby-bundler_js-yarn,5486671
gitlab-org/security-products/tests/ruby-bundler-rails,5474112
gitlab-org/security-products/tests/sast,6328050
gitlab-org/security-products/tests/scala-sbt,6523803
gitlab-org/security-products/tests/secrets,11317506, @amarpatel
gitlab-org/security-products/tests/typescript-yarn,10846938
gitlab-org/security-products/tests/webgoat,7688358
gitlab-org/labkit,9438583
gitlab-org/container-registry,13831684
gitlab-org/gitlab-ui,7071551
gitlab-org/cluster-integration/cluster-applications,14404642
gitlab-org/cluster-integration/gitlab-agent,19019153
gitlab-services/version-gitlab-com,6491770
gitlab-org/security/cli,38355982
gitlab-org/security/gitlab-workhorse,15704133
gitlab-org/security/gitaly,15685912
gitlab-org/security/gitlab-pages,15685887
gitlab-org/security/gitlab-shell,15685819
gitlab-org/security/gitlab-foss,15683922
gitlab-org/security/omnibus-gitlab,15667093
gitlab-org/security/gitlab,15642544
gitlab-org/security/gitlab-runner,19047934
gitlab-org/status-page,16842968
gitlab-org/webide-file-sync,11446522
gitlab-org/gitlab-services/design.gitlab.com,4456656
gitlab-org/terraform-images,18943607
gitlab-org/gitlab-qa,1441932
gitlab-org/quality/triage-ops,7776928, @kwiebers
gitlab-org/gitlab-environment-toolkit,14292404
gitlab-org/quality/performance,11511606
gitlab-org/ruby/gems/gitlab-triage,3430480
gitlab-org/quality/nightly,7523614
gitlab-org/quality/staging,7524061
gitlab-org/quality/canary,7560116
gitlab-org/quality/production,7560137
gitlab-org/quality/pipeline-common,14477200
gitlab-org/ruby/gems/gitlab-styles,4176070
gitlab-org/quality/triage-serverless,12690061
gitlab-org/quality/testcases,11229385
gitlab-org/quality/insights-config,11880131
gitlab-org/cluster-integration/test-utils/k3s-gitlab-ci,12450931
gitlab-com/gl-infra/gitlab-gcp-janitor,13613417
gitlab-org/gitlab-design,443787
gitlab-org/gitlab-svgs,4149988
gitlab-org/csslab,4382108
gitlab-org/release-cli,16573099
gitlab-org/quality/ci/no-downtime-upgrades,15114652
gitlab-org/quality/performance-sitespeed,15208888
gitlab-org/quality/performance-data,13566613
gitlab-org/quality/preprod,15821588
gitlab-org/quality/ci/secure-test-project-orchestrator,19722963
gitlab-com/gl-infra/production,7444821
gitlab-com/runbooks,1148549
gitlab-com/chatops,5651817
gitlab-cookbooks/cookbook-customers-gitlab-com,1755794
gitlab-cookbooks/cookbook-wrapper-gitlab-runner,1755701
gitlab-org/gl-openshift/gitlab-runner-operator,22848448
gitlab-org/cloud-native/gitlab-operator,18899486
gitlab-com/gl-infra/customersdot-ansible,26392061
gitlab-org/ruby/gems/tanuki_emoji,27628435
gitlab-org/opstrace/opstrace,32149347
gitlab-org/opstrace/opstrace-ui,32189602
gitlab-org/analytics-section/product-intelligence/snowplow-pseudonymization,28496898
gitlab-org/analytics-section/product-intelligence/metric-dictionary,27919014, @timzallmann
gitlab-org/modelops/applied-ml/review-recommender/recommendation-engine,31203840
gitlab-org/modelops/applied-ml/review-recommender/recommender-bot-service,32318686
gitlab-org/modelops/applied-ml/review-recommender/gcp-postgres,32823351
gitlab-org/modelops/applied-ml/review-recommender/extracteur,31202357
gitlab-org/modelops/applied-ml/review-recommender/etl,31202862
gitlab-org/modelops/applied-ml/review-recommender/recommender-ci,31203942
gitlab-org/modelops/anti-abuse/pipeline-validation-service,24631368
gitlab-org/gitlab-web-ide,35104827,@oregand
gitlab-org/remote-development/devfile-gem,43473862,@oregand
gitlab-org/gitlab-web-ide-vscode-fork,37966217,@oregand
gitlab-org/remote-development/gitlab-workspaces-proxy,43788427,@oregand
gitlab-org/cluster-integration/gitlab-agent-ci-image,29138380
gitlab-org/charts/gitlab-agent,34907799
gitlab-org/terraform-provider-gitlab,40916776
gitlab-org/editor-extensions/gitlab-jetbrains-plugin,32950782
gitlab-org/editor-extensions/gitlab-visual-studio-extension,46231956
gitlab-org/editor-extensions/gitlab.vim,47052693
gitlab-org/editor-extensions/gitlab-lsp,46519181
